{
  "builders": [
    {
      "type":"proxmox-iso",
      "boot_command": [
        "<esc><wait>",
        "auto preseed/file=file:///mnt/cdrom2/11_proxmox_debian_cloudinit_preseed.cfg<enter>",
        "<wait10>",
        "<leftAltOn><f2><leftAltOff>",
        "<enter><wait>",
        "mkdir /mnt/cdrom2<enter>",
        "mount /dev/sr1 /mnt/cdrom2<enter>",
        "<wait>",
        "<leftAltOn><f1><leftAltOff>",
        "<enter><wait><enter>",
        "<down><down><down><down><enter>"
      ],
      "node": "{{user `proxmox_node`}}",
      "pool" : "{{user `proxmox_pool`}}",
      "proxmox_url":  "{{user `proxmox_url`}}",
      "insecure_skip_tls_verify": "{{ user `proxmox_skip_tls_verify` }}",
      "username": "{{ user `proxmox_username` }}",
      "password": "{{ user `proxmox_password` }}",
      "vm_name": "{{ user `vm_name` }}",
      "template_name" : "{{ user `vm_name` }}",
      "template_description": "{{ user `template_description` }}",
      "iso_checksum": "{{ user `iso_checksum` }}",
      "iso_url": "http://cdimage.debian.org/cdimage/release/{{user `debian_version`}}/amd64/iso-cd/debian-{{user `debian_version`}}-amd64-netinst.iso",
      "iso_storage_pool": "{{ user `proxmox_iso_storage_pool` }}",
      "communicator": "ssh",
      "ssh_password": "{{ user `ssh_password` }}",
      "ssh_username": "{{ user `ssh_username` }}",
      "ssh_timeout": "30m",
      "memory": "{{ user `vm_memory` }}",
      "cores": "{{ user `vm_cpu_cores` }}",
      "sockets": "{{ user `vm_sockets` }}",
      "os": "{{ user `os` }}",
      "cpu_type": "host",
      "scsi_controller": "virtio-scsi-single",
      "cloud_init": true,
      "cloud_init_storage_pool" : "{{ user `proxmox_storage`}}", 
      "network_adapters": [
        {
          "model": "virtio",
          "bridge": "vmbr0"
        }
      ],
      "disks": [
        {
          "type": "scsi",
          "disk_size": "{{ user `vm_disk_size` }}",
          "storage_pool": "{{ user `proxmox_storage`}}",
          "format" : "qcow2"
        }
      ],
      "additional_iso_files": [
        {
          "device": "sata3",
          "iso_url": "{{ user `autounattend_iso` }}",
          "iso_checksum": "{{ user `autounattend_checksum` }}",
          "iso_storage_pool": "{{ user `proxmox_iso_storage_pool` }}",
          "unmount": true
        }
      ]
    }
  ]
}
